4 Practical Four – Practical One
…
if (!requireNamespace("knitr", quietly = TRUE)) {
  install.packages("knitr")
}
library(knitr)

4.1 Question 1

Display the flights dataset in an alternative format to simply printing it (i.e. running flights).

tibble(flights)

# A tibble: 336,776 × 19
    year month   day dep_time sched_dep_time dep_delay arr_time sched_arr_time
   <int> <int> <int>    <int>          <int>     <dbl>    <int>          <int>
 1  2013     1     1      517            515         2      830            819
 2  2013     1     1      533            529         4      850            830
 3  2013     1     1      542            540         2      923            850
 4  2013     1     1      544            545        -1     1004           1022
 5  2013     1     1      554            600        -6      812            837
 6  2013     1     1      554            558        -4      740            728
 7  2013     1     1      555            600        -5      913            854
 8  2013     1     1      557            600        -3      709            723
 9  2013     1     1      557            600        -3      838            846
10  2013     1     1      558            600        -2      753            745
# ℹ 336,766 more rows
# ℹ 11 more variables: arr_delay <dbl>, carrier <chr>, flight <int>,
#   tailnum <chr>, origin <chr>, dest <chr>, air_time <dbl>, distance <dbl>,
#   hour <dbl>, minute <dbl>, time_hour <dttm>
…
flights

# A tibble: 336,776 × 19
    year month   day dep_time sched_dep_time dep_delay arr_time sched_arr_time
   <int> <int> <int>    <int>          <int>     <dbl>    <int>          <int>
 1  2013     1     1      517            515         2      830            819
 2  2013     1     1      533            529         4      850            830
 3  2013     1     1      542            540         2      923            850
 4  2013     1     1      544            545        -1     1004           1022
 5  2013     1     1      554            600        -6      812            837
 6  2013     1     1      554            558        -4      740            728
 7  2013     1     1      555            600        -5      913            854
 8  2013     1     1      557            600        -3      709            723
 9  2013     1     1      557            600        -3      838            846
10  2013     1     1      558            600        -2      753            745
# ℹ 336,766 more rows
# ℹ 11 more variables: arr_delay <dbl>, carrier <chr>, flight <int>,
#   tailnum <chr>, origin <chr>, dest <chr>, air_time <dbl>, distance <dbl>,
#   hour <dbl>, minute <dbl>, time_hour <dttm>

4.6.1 6.1

Identify routes that more than one airline flies

multiple_airlines_per_route <- flights |>
  select(carrier,origin, dest, arr_delay) |>
  group_by(origin,dest) |>
  filter(n_distinct(carrier) > 1) 

multiple_airlines_per_route

# A tibble: 276,735 × 4
# Groups:   origin, dest [128]
   carrier origin dest  arr_delay
   <chr>   <chr>  <chr>     <dbl>
 1 AA      JFK    MIA          33
 2 DL      LGA    ATL         -25
 3 UA      EWR    ORD          12
 4 B6      EWR    FLL          19
 5 EV      LGA    IAD         -14
 6 B6      JFK    MCO          -8
 7 AA      LGA    ORD           8
 8 B6      JFK    TPA          -3
 9 UA      JFK    LAX           7
10 UA      EWR    SFO         -14
# ℹ 276,725 more rows
…
`summarise()` has grouped output by 'carrier', 'origin'. You can override using
the `.groups` argument.

names_avg_arr_delay <- inner_join(airlines, avg_arr_delay)

Joining with `by = join_by(carrier)`

names_avg_arr_delay

# A tibble: 343 × 5
   carrier name              origin dest  average_arival_delay
   <chr>   <chr>             <chr>  <chr>                <dbl>
 1 9E      Endeavor Air Inc. EWR    ATL                  -6.25
 2 9E      Endeavor Air Inc. EWR    CVG                   1.40
 3 9E      Endeavor Air Inc. EWR    DTW                   2.54
 4 9E      Endeavor Air Inc. EWR    MSP                   1.60
 5 9E      Endeavor Air Inc. JFK    ATL                   1.40
 6 9E      Endeavor Air Inc. JFK    AUS                  -3.5 
 7 9E      Endeavor Air Inc. JFK    BNA                  10.2 
 8 9E      Endeavor Air Inc. JFK    BOS                   5.66
 9 9E      Endeavor Air Inc. JFK    BUF                   6.67
10 9E      Endeavor Air Inc. JFK    BWI                   8.73
# ℹ 333 more rows
…
`summarise()` has grouped output by 'origin'. You can override using the
`.groups` argument.

best_worst

# A tibble: 128 × 6
   origin dest  best_airline             best_avg_arival_delay worst_airline    
   <chr>  <chr> <chr>                                    <dbl> <chr>            
 1 EWR    ATL   ExpressJet Airlines Inc.                 19.5  Endeavor Air Inc.
 2 EWR    AUS   United Air Lines Inc.                     4.28 Southwest Airlin…
 3 EWR    BDL   United Air Lines Inc.                    22.6  ExpressJet Airli…
 4 EWR    BNA   ExpressJet Airlines Inc.                 17.7  Southwest Airlin…
 5 EWR    BOS   JetBlue Airways                           6.87 ExpressJet Airli…
 6 EWR    BWI   ExpressJet Airlines Inc.                 20.1  Southwest Airlin…
 7 EWR    CHS   ExpressJet Airlines Inc.                 16.2  United Air Lines…
 8 EWR    CLE   United Air Lines Inc.                     5.97 ExpressJet Airli…
 9 EWR    CLT   ExpressJet Airlines Inc.                 20.5  US Airways Inc.  
10 EWR    CVG   ExpressJet Airlines Inc.                 21.2  Endeavor Air Inc.
# ℹ 118 more rows
# ℹ 1 more variable: worst_avg_arrival_delay <dbl>
…
